…
    ggsave(plot = plot_integrated_log_scaled, width = 576/72, height = 206/72, filename = "plot_integrated_log_scaled.svg")

## nrを使用・plate間normalizationのみにする（差分でnormalize & elapsed\_time入れる）

    integrated_qfa %>%
      select(biorep, speed, agarPlate, nr) %>%
      rename(spotting_time=agarPlate)

    ## # A tibble: 48 × 4
    ##    biorep speed spotting_time    nr
    ##    <fct>  <fct>         <dbl> <dbl>
    ##  1 1      290           1087. 0.370
    ##  2 2      290           1809. 0.421
    ##  3 1      290           2527. 0.364
    ##  4 2      290           3253. 0.411
    ##  5 1      290           3976. 0.392
    ##  6 2      290           4707. 0.359
    ##  7 1      210           1235. 0.371
    ##  8 2      210           1957. 0.357
    ##  9 1      210           2676. 0.379
    ## 10 2      210           3402. 0.297
    ## # ℹ 38 more rows
…
