…
### GLM

    design <- model.matrix(~Pipetting_Speed + Biological_Replicates, data = meta_data)
    disp <- estimateDisp(dge_list, design)
    fit <- glmQLFit(disp, design)
    res <- glmQLFTest(fit, coef=2:ncol(design))
    result_GLM <- topTags(res, n = Inf, adjust.method = "BH") %>%
      {tibble(gene_id = rownames(.), as_tibble(.$table))} %>%
      rename("50vs130" = logFC.Pipetting_Speed130) %>%
      rename("50vs210" = logFC.Pipetting_Speed210) %>%
      rename("50vs290" = logFC.Pipetting_Speed290) %>%
      rename("BR1vsBR2" = logFC.Biological_Replicates2)
    result_GLM

    ## # A tibble: 5,142 × 9
    ##    gene_id `50vs130` `50vs210` `50vs290` BR1vsBR2 logCPM     F     PValue    FDR
    ##    <chr>       <dbl>     <dbl>     <dbl>    <dbl>  <dbl> <dbl>      <dbl>  <dbl>
    ##  1 YNL058C   0.0707     0.107     0.219    0.109    7.88 14.3  0.00000728 0.0200
    ##  2 URA2      0.0551     0.100     0.226    0.124   11.1  14.1  0.00000777 0.0200
    ##  3 RPL39    -0.152     -0.231    -0.356   -0.0962   7.09 10.4  0.0000716  0.0928
    ##  4 COM2     -0.230     -0.299    -0.257   -0.149    6.25 10.4  0.0000722  0.0928
    ##  5 TDA6     -0.262     -0.520    -0.422   -0.125    4.75  8.24 0.000329   0.322 
    ##  6 RPS30A   -0.112     -0.154    -0.217   -0.0672   7.77  7.93 0.000417   0.322 
    ##  7 SSP2      0.242      0.259     0.143   -0.444    1.59  7.53 0.000572   0.322 
    ##  8 GDE1      0.0931     0.0982    0.212    0.0335   7.48  7.48 0.000591   0.322 
    ##  9 PCS60     0.00975    0.0516    0.0779   0.109    7.72  7.44 0.000612   0.322 
    ## 10 RPS20    -0.0437    -0.0882   -0.122   -0.103   10.4   7.41 0.000627   0.322 
    ## # ℹ 5,132 more rows
…
        tibble(
          Name = names(list_anova)[i],
          pval_Speed = summary(list_anova[[i]])[[1]]$"Pr(>F)"[1],
                    pval_Biorep = summary(list_anova[[i]])[[1]]$"Pr(>F)"[2]
        )
      }
    ) %>%
      bind_rows() %>%
      mutate(
                FDR_Speed = p.adjust(pval_Speed, method = "BH"),
                FDR_Biorep = p.adjust(pval_Biorep, method = "BH")
            )
    result_2way_ANOVA

    ## # A tibble: 5,142 × 5
    ##    Name  pval_Speed pval_Biorep FDR_Speed FDR_Biorep
    ##    <chr>      <dbl>       <dbl>     <dbl>      <dbl>
    ##  1 AAC1       0.460      0.971      0.994      0.989
    ##  2 AAC3       0.969      0.150      0.994      0.666
    ##  3 AAD15      0.588      0.687      0.994      0.854
    ##  4 AAH1       0.688      0.561      0.994      0.794
    ##  5 AAN1       0.629      0.0466     0.994      0.609
    ##  6 AAP1       0.986      0.970      0.997      0.989
    ##  7 AAR2       0.540      0.0380     0.994      0.609
    ##  8 AAT1       0.167      0.0474     0.994      0.609
    ##  9 AAT2       0.524      0.541      0.994      0.783
    ## 10 ABD1       0.541      0.371      0.994      0.717
    ## # ℹ 5,132 more rows
…
