2回目のRNA-seq 解析
…
    tibble(
      Name = names(list_anova)[i],
      pval_Speed = summary(list_anova[[i]])[[1]]$"Pr(>F)"[1],
                pval_Biorep = summary(list_anova[[i]])[[1]]$"Pr(>F)"[2]
    )
  }
) %>%
  bind_rows() %>%
  mutate(
            FDR_Speed = p.adjust(pval_Speed, method = "BH"),
            FDR_Biorep = p.adjust(pval_Biorep, method = "BH")
        )
result_2way_ANOVA

## # A tibble: 5,142 × 5
##    Name  pval_Speed pval_Biorep FDR_Speed FDR_Biorep
##    <chr>      <dbl>       <dbl>     <dbl>      <dbl>
##  1 AAC1       0.460      0.971      0.994      0.989
##  2 AAC3       0.969      0.150      0.994      0.666
##  3 AAD15      0.588      0.687      0.994      0.854
##  4 AAH1       0.688      0.561      0.994      0.794
##  5 AAN1       0.629      0.0466     0.994      0.609
##  6 AAP1       0.986      0.970      0.997      0.989
##  7 AAR2       0.540      0.0380     0.994      0.609
##  8 AAT1       0.167      0.0474     0.994      0.609
##  9 AAT2       0.524      0.541      0.994      0.783
## 10 ABD1       0.541      0.371      0.994      0.717
## # ℹ 5,132 more rows
…
